<svg width="512" height="512" xmlns="http://www.w3.org/2000/svg">
 <title/>
 <desc/>

 <g>
  <title>background</title>
  <rect fill="none" id="canvas_background" height="402" width="582" y="-1" x="-1"/>
 </g>
 <g>
  <title>Layer 1</title>
  <polygon points="163.5707244873047,276.17967224121094 348.32940673828125,276.17967224121094 348.32940673828125,232.55531311035156 163.5707244873047,232.55531311035156 " id="Fill-1" fill="#FEFEFE"/>
  <path id="Fill-2" fill="#2E2E30" d="m173.88972,265.882811l164.13446,0l0,-23.03064l-164.13446,0l0,23.03064zm174.44657,20.59371l-184.75868,0c-5.69229,0 -10.31212,-4.60612 -10.31212,-10.29685l0,-43.62436c0,-5.68387 4.61983,-10.29686 10.31212,-10.29686l184.75868,0c5.69229,0 10.31211,4.61299 10.31211,10.29686l0,43.62436c0,5.69073 -4.61982,10.29685 -10.31211,10.29685l0,0z"/>
  <polygon points="350.2062072753906,415.08672392368317 400.6668395996094,415.08672392368317 400.6668395996094,91.45646727085114 350.2062072753906,91.45646727085114 " id="Fill-4" fill="#0f0f00"/>
  <polygon points="400.6668395996094,382.64918810129166 451.12744140625,382.64918810129166 451.12744140625,126.08580309152603 400.6668395996094,126.08580309152603 " id="Fill-6" fill="#0f0f00"/>
  <polygon points="451.1343078613281,339.0865965485573 501.59490966796875,339.0865965485573 501.59490966796875,169.64837938547134 451.1343078613281,169.64837938547134 " id="Fill-8" fill="#0f0f00"/>
  <polygon points="111.24019622802734,416.18260484933853 161.7008056640625,416.18260484933853 161.7008056640625,92.55236345529556 111.24019622802734,92.55236345529556 " id="Fill-10" fill="#0f0f00"/>
  <polygon points="60.77959060668945,382.64918810129166 111.24019622802734,382.64918810129166 111.24019622802734,126.08580309152603 60.77959060668945,126.08580309152603 " id="Fill-14" fill="#0f0f00"/>
  <polygon points="15.791579246520996,342.37428855895996 66.25218296051025,342.37428855895996 66.25218296051025,172.93605613708496 15.791579246520996,172.93605613708496 " id="Fill-16" fill="#0f0f00"/>
  <polygon points="111.24019622802734,416.18260484933853 161.7008056640625,416.18260484933853 161.7008056640625,382.64918810129166 111.24019622802734,382.64918810129166 " opacity="0.3" id="Fill-12" fill="#010202"/>
  <polygon points="350.2062072753906,416.18260484933853 400.6668395996094,416.18260484933853 400.6668395996094,382.64918810129166 350.2062072753906,382.64918810129166 " opacity="0.3" id="Fill-13" fill="#010202"/>
  <polygon points="60.77959060668945,382.6560545563698 111.24019622802734,382.6560545563698 111.24019622802734,349.1226072907448 60.77959060668945,349.1226072907448 " opacity="0.3" id="Fill-18" fill="#010202"/>
  <polygon points="402.54364013671875,382.6560545563698 453.0042419433594,382.6560545563698 453.0042419433594,349.1226072907448 402.54364013671875,349.1226072907448 " opacity="0.3" id="Fill-19" fill="#010202"/>
  <polygon points="10.312112808227539,339.0934630036354 60.7727165222168,339.0934630036354 60.7727165222168,305.56004625558853 10.312112808227539,305.56004625558853 " opacity="0.3" id="Fill-20" fill="#010202"/>
  <polygon points="453.0111083984375,339.0934630036354 503.4717102050781,339.0934630036354 503.4717102050781,305.56004625558853 453.0111083984375,305.56004625558853 " opacity="0.3" id="Fill-21" fill="#010202"/>
  <path id="Fill-5" fill="#2E2E30" d="m360.51833,405.885751l29.83638,0l0,-303.03653l-29.83638,0l0,303.03653zm40.1485,20.59372l-50.46061,0c-5.69228,0 -10.31211,-4.61299 -10.31211,-10.29686l0,-323.63025c0,-5.68386 4.61983,-10.29685 10.31211,-10.29685l50.46061,0c5.69228,0 10.31211,4.61299 10.31211,10.29685l0,323.63025c0,5.68387 -4.61983,10.29686 -10.31211,10.29686l0,0z"/>
  <path id="Fill-7" fill="#2E2E30" d="m410.97894,372.352321l29.84325,0l0,-235.96966l-29.84325,0l0,235.96966zm40.15536,20.59372l-50.46747,0c-5.69229,0 -10.31212,-4.613 -10.31212,-10.29686l0,-256.56338c0,-5.68387 4.61983,-10.29686 10.31212,-10.29686l50.46747,0c5.69229,0 10.31212,4.61299 10.31212,10.29686l0,256.56338c0,5.68386 -4.61983,10.29686 -10.31212,10.29686l0,0z"/>
  <path id="Fill-9" fill="#2E2E30" d="m461.44642,328.796611l29.83638,0l0,-148.85138l-29.83638,0l0,148.85138zm40.14849,20.59372l-50.46061,0c-5.69228,0 -10.31211,-4.613 -10.31211,-10.29686l0,-169.4451c0,-5.68386 4.61983,-10.29686 10.31211,-10.29686l50.46061,0c5.69229,0 10.31211,4.613 10.31211,10.29686l0,169.4451c0,5.68386 -4.61982,10.29686 -10.31211,10.29686l0,0z"/>
  <path id="Fill-11" fill="#2E2E30" d="m121.55231,405.885751l29.84325,0l0,-303.03653l-29.84325,0l0,303.03653zm40.14849,20.59372l-50.4606,0c-5.69229,0 -10.31212,-4.61299 -10.31212,-10.29686l0,-323.63025c0,-5.68386 4.61983,-10.29685 10.31212,-10.29685l50.4606,0c5.69916,0 10.31211,4.61299 10.31211,10.29685l0,323.63025c0,5.68387 -4.61295,10.29686 -10.31211,10.29686l0,0z"/>
  <path id="Fill-15" fill="#2E2E30" d="m71.08483,372.352321l29.84325,0l0,-235.96966l-29.84325,0l0,235.96966zm40.15537,20.59372l-50.46748,0c-5.69229,0 -10.31212,-4.613 -10.31212,-10.29686l0,-256.56338c0,-5.68387 4.61983,-10.29686 10.31212,-10.29686l50.46748,0c5.69228,0 10.31211,4.61299 10.31211,10.29686l0,256.56338c0,5.68386 -4.61983,10.29686 -10.31211,10.29686l0,0z"/>
  <path id="Fill-17" fill="#2E2E30" d="m20.62423,328.796611l29.83637,0l0,-148.85138l-29.83637,0l0,148.85138zm40.14849,20.59372l-50.46061,0c-5.69228,0 -10.31211,-4.613 -10.31211,-10.29686l0,-169.4451c0,-5.68386 4.61983,-10.29686 10.31211,-10.29686l50.46061,0c5.69228,0 10.31211,4.613 10.31211,10.29686l0,169.4451c0,5.68386 -4.61983,10.29686 -10.31211,10.29686l0,0z"/>
 </g>
</svg>